Section 0: R, dplyr, ggplot, and knitr
…
select returns columns of the dataset that match whatever logical conditions you set.

rename does exactly what it sounds like: it renames a variable.

mutate creates a new variable

Lets try them out on our dataset:

#filter(data, conditions)
filter(ourdata, state=="Florida" & hh_size > 10)

## Warning: package 'bindrcpp' was built under R version 3.4.4

## # A tibble: 69 x 23
##    state county last_sdx_code frst_sdx_code hh_size treat treat1overN
##    <chr> <chr>  <chr>         <chr>           <int> <int>       <dbl>
##  1 Flor ALACH L0783         F656               13     0      0     
##  2 Flor ALACH L0468         F024               13     0      0     
##  3 Flor ALACH L0021         F351               11     0      0     
##  4 Flor ALACH L0782         F077               11     0      0.5   
##  5 Flor ALACH L0438         F376               11     0      0.0833
##  6 Flor ALACH L0448         F132               11     1      1     
##  7 Flor CALHO L0512         F281               11     0      0     
##  8 Flor CALHO L0297         F104               11     0      0     
##  9 Flor CALHO L0955         F376               11     0      0     
## 10 Flor COLUM L0093         F376               11     0      0     
## # ... with 59 more rows, and 16 more variables: treatMoverN <dbl>,
## #   confdr_hh_count <int>, frac_confdr_count_men <dbl>,
## #   confdr_hh_count_1861 <int>, confdr_hh_binary_1861 <int>,
## #   frac_confdr_count_men_1861 <dbl>, confdr_hh_MoverN <dbl>,
## #   confdr_any_MoverN <dbl>, frac_confdr_MoverN_men <dbl>,
## #   children_size <int>, sons_size <int>, slaves_hh_count <dbl>,
## #   realprop_head <int>, realprop_hsum <int>, confdr_hh_binary <int>,
## #   battle_county <int>

#select(data, which columns)
select(ourdata, children_size, sons_size)

## # A tibble: 13,414 x 2
##    children_size sons_size
##            <int>     <int>
##  1             7         3
##  2             8         6
##  3             1         0
##  4             6         4
##  5            10         8
##  6             6         3
##  7             6         5
##  8             4         1
##  9            10         5
## 10             2         1
## # ... with 13,404 more rows

kids <- select(ourdata, children_size, sons_size)

#All columns EXCEPT battle_county:
select(ourdata, -battle_county)

## # A tibble: 13,414 x 22
##    state county last_sdx_code frst_sdx_code hh_size treat treat1overN
##    <chr> <chr>  <chr>         <chr>           <int> <int>       <dbl>
##  1 Flor ALACH L1257         F602               10     0           0
##  2 Flor ALACH L1599         F376               10     1           1
##  3 Flor ALACH L1134         F606                5     0           0
##  4 Flor ALACH L1105         F606               10     1           1
##  5 Flor ALACH L0783         F656               13     0           0
##  6 Flor ALACH L1234         F351                9     0           0
##  7 Flor ALACH L1518         F194                8     0           0
##  8 Flor ALACH L0498         F376                7     0           0
##  9 Flor ALACH L0468         F024               13     0           0
## 10 Flor ALACH L0988         F024                5     1           1
## # ... with 13,404 more rows, and 15 more variables: treatMoverN <dbl>,
## #   confdr_hh_count <int>, frac_confdr_count_men <dbl>,
## #   confdr_hh_count_1861 <int>, confdr_hh_binary_1861 <int>,
## #   frac_confdr_count_men_1861 <dbl>, confdr_hh_MoverN <dbl>,
## #   confdr_any_MoverN <dbl>, frac_confdr_MoverN_men <dbl>,
## #   children_size <int>, sons_size <int>, slaves_hh_count <dbl>,
## #   realprop_head <int>, realprop_hsum <int>, confdr_hh_binary <int>

mutate(ourdata, no_sons = sons_size==0)

## # A tibble: 13,414 x 24
##    state county last_sdx_code frst_sdx_code hh_size treat treat1overN
##    <chr> <chr>  <chr>         <chr>           <int> <int>       <dbl>
##  1 Flor ALACH L1257         F602               10     0           0
##  2 Flor ALACH L1599         F376               10     1           1
##  3 Flor ALACH L1134         F606                5     0           0
##  4 Flor ALACH L1105         F606               10     1           1
##  5 Flor ALACH L0783         F656               13     0           0
##  6 Flor ALACH L1234         F351                9     0           0
##  7 Flor ALACH L1518         F194                8     0           0
##  8 Flor ALACH L0498         F376                7     0           0
##  9 Flor ALACH L0468         F024               13     0           0
## 10 Flor ALACH L0988         F024                5     1           1
## # ... with 13,404 more rows, and 17 more variables: treatMoverN <dbl>,
## #   confdr_hh_count <int>, frac_confdr_count_men <dbl>,
## #   confdr_hh_count_1861 <int>, confdr_hh_binary_1861 <int>,
## #   frac_confdr_count_men_1861 <dbl>, confdr_hh_MoverN <dbl>,
## #   confdr_any_MoverN <dbl>, frac_confdr_MoverN_men <dbl>,
## #   children_size <int>, sons_size <int>, slaves_hh_count <dbl>,
## #   realprop_head <int>, realprop_hsum <int>, confdr_hh_binary <int>,
## #   battle_county <int>, no_sons <lgl>
…
